{
  "path": "sample_002.jpg",
  "meta_data": {
    "0":{
      "R":32,
      "G":32,
      "B":32
    },
    "1":{
      "R":35,
      "G":35,
      "B":35
    },
    "2":{
      "R":36,
      "G":36,
      "B":36
    },
    "3":{
      "R":34,
      "G":34,
      "B":34
    },
    "4":{
      "R":33,
      "G":33,
      "B":33
    },
    "5":{
      "R":39,
      "G":39,
      "B":39
    },
    "6":{
      "R":41,
      "G":41,
      "B":41
    },
    "7":{
      "R":39,
      "G":39,
      "B":39
    }
  }
}



