{
  "color_type_key": {
    "0": "R",
    "1": "G",
    "2": "B",
    "3": "W"},
  "color_type_color": {
    "0": {
      "0": 0,
      "1": 0,
      "2": 255},
    "1": {
      "0": 0,
      "1": 255,
      "2": 0},
    "2": {
      "0": 255,
      "1": 0,
      "2": 0},
    "3": {
      "0": 255,
      "1": 255,
      "2": 255}},
  "color_value_key" : {
    "0": 1,
    "1": 2,
    "2": 4,
    "3": 8,
    "4": 16,
    "5": 20},
  "color_ranges_key": {
    "0": [260,270],
    "1": [230,240],
    "2": [200,210],
    "3": [170,180],
    "4": [140,150],
    "5": [80,90],
    "start": [25,30]}
}
